Traffic:
25000-1/8
17800-2/8
500-3/8
400-4/8
45000-5/8
1000-6/8
60000-7/8
67800-8/8
3000-9/8
60080-10/8
55000-11/8
4000-12/8
Egress:
r1
r3
r16
r24
r46
r57
r79
r100
r120
r146
r152
Hosts prefixes:
12/8
11/8
10/8
9/8
8/8
7/8
6/8
5/8
4/8
3/8
2/8
1/8