Topology:
r0
r1
r2
r3
r4
r5
r6
r7
r8
r9
r10
r11
r12
r13
r14
r15
r16
r17
r18
r19
r20
r21
r22
r23
r24
r25
r26
r27
r28
r29
r30
r31
r32
r33
r34
r35
r36
r37
r38
r39
r40
r41
r42
r43
r44
r45
r46
r47
r48
r49
r50
r51
r52
r53
r54
r55
r56
r57
r58
r59
r60
r61
r62
r63
r64
r65
r66
r67
r68
r69
r70
r71
r72
r73
r74
r75
r76
r77
r78
r79
r80
r81
r82
r83
r84
r85
r86
r87
r88
r89
r90
r91
r92
r93
r94
r95
r96
r97
r98
r99
r100
r101
r102
r103
r104
r105
r106
r107
r108
r109
r110
r111
r112
r113
r114
r115
r116
r117
r118
r119
r120
r121
r122
r123
r124
r125
r126
r127
r128
r129
r130
r131
r132
r133
r134
r135
r136
r137
r138
r139
r140
r141
r142
r143
r144
r145
r146
r147
r148
r149
r150
r151
r152
r153
r154
r155
r156
r157
r158
r159
r160
r161
r162
r163
r164
r165
r166
r167
r168
r169
r170
r171
r172
r173
r174
r175
r176
r177
r178
r179
r180
r181
r182
r183
r184
r185
r186
r187
r188
r189
r190
r191
r192
r193
r194
r195
r196
r197
r198
r199
r200
r201
r202
r203
r204
r205
r206
r207
r208
r209
r210
r211
r212
r213
r214
r215
r216
r217
r218
r219
r220
r221
r222
r223
r224
r225
r226
r227
r228
r229
r230
r231
r232
r233
r234
r235
r236
r237
r238
r239
r240
r241
r242
r243
r244
r245
r246
r247
r248
r249
r250
r251
r252
r253
r254
r255
r256
r257
r258
r259
r260
r261
r262
r263
r264
r265
r266
r267
r268
r269
r270
r271
r272
r273
r274
r275
r276
r277
r278
r279
r280
r281
r282
r283
r284
r285
r286
r287
r288
r289
r290
r291
r292
r293
r294
r295
r296
r297
r298
r299
r300
r301
r302
r303
r304
r305
r306
r307
r308
r309
r310
r311
r312
r313
r314
Ingress:
r1
r3
r16
r24
r46
r57
r79
r100
r120
r146
r152
r170
r180
r200
r260
r270
r278
r300
Hosts:
1/8-r5
2/8-r11
3/8-r23
4/8-r45
5/8-r67
6/8-r79
7/8-r80
8/8-r89
9/8-r108
10/8-r120
11/8-r132
12/8-r154
13/8-r205
14/8-r207
15/8-r254
16/8-r287
17/8-r290
Capacities:
r0-r1: 100/4
r0-r2: 100/1
r0-r3: 100/7
r0-r4: 100/21
r0-r5: 100/4
r0-r6: 100/1
r0-r7: 100/1
r0-r8: 100/1
r0-r9: 100/1
r0-r10: 100/1
r0-r11: 100/16
r12-r1: 100/1
r12-r5: 24/1
r13-r14: 100/2
r13-r15: 100/33
r13-r16: 100/1
r13-r4: 100/3
r17-r5: 24/1
r17-r1: 100/1
r17-r18: 100/1
r17-r19: 24/1
r17-r20: 24/1
r17-r21: 100/1
r22-r23: 100/1
r22-r24: 100/1
r22-r25: 24/1
r22-r26: 24/13
r22-r27: 24/1
r28-r29: 100/1
r28-r30: 100/1
r28-r31: 100/1
r28-r4: 100/2
r28-r32: 100/2
r28-r33: 100/1
r28-r34: 100/2
r35-r3: 100/1
r36-r23: 100/1
r36-r24: 100/1
r36-r26: 24/13
r36-r25: 100/1
r36-r27: 24/1
r37-r38: 100/1
r37-r39: 100/1
r40-r41: 100/1
r40-r42: 100/3
r40-r16: 100/30
r40-r43: 100/4
r40-r44: 24/29
r45-r46: 24/29
r45-r42: 24/3
r45-r16: 100/30
r45-r44: 24/29
r47-r34: 100/4
r48-r49: 100/1
r48-r50: 100/5
r51-r5: 100/22
r51-r52: 100/1
r51-r53: 24/1
r51-r54: 100/21
r51-r55: 24/1
r51-r21: 24/22
r56-r57: 100/4
r58-r8: 100/7
r58-r59: 24/1
r58-r3: 100/1
r58-r60: 100/9
r58-r61: 24/1
r58-r62: 100/40
r63-r15: 100/3
r63-r64: 100/3
r63-r65: 100/1
r63-r66: 100/5
r67-r68: 24/1
r67-r69: 100/1
r70-r32: 100/1
r70-r4: 100/1
r70-r34: 24/1
r71-r72: 100/2
r73-r74: 100/1
r73-r75: 100/1
r73-r76: 100/1
r77-r78: 24/2
r77-r79: 100/2
r80-r81: 100/6
r82-r83: 24/1
r82-r84: 24/2
r82-r85: 100/2
r86-r4: 100/1
r87-r74: 100/1
r87-r75: 100/1
r87-r76: 100/1
r88-r68: 24/7
r88-r23: 100/1
r88-r24: 100/1
r88-r25: 100/1
r88-r89: 24/8
r88-r26: 24/13
r88-r27: 24/1
r21-r1: 100/1
r21-r2: 100/4
r21-r90: 100/1
r21-r91: 100/1
r21-r92: 100/1
r21-r18: 100/1
r21-r93: 100/1
r21-r53: 100/22
r21-r94: 24/1
r21-r17: 100/1
r21-r95: 100/1
r21-r96: 24/1
r21-r97: 100/11
r21-r98: 100/1
r21-r51: 24/22
r21-r99: 24/11
r21-r100: 100/1
r21-r25: 100/11
r21-r19: 100/1
r21-r101: 100/1
r21-r102: 100/1
r21-r103: 100/1
r21-r5: 24/1
r21-r6: 24/4
r21-r104: 100/1
r21-r105: 24/1
r21-r20: 24/1
r21-r106: 24/1
r1-r0: 100/4
r1-r90: 100/1
r1-r92: 100/1
r1-r12: 100/1
r1-r53: 100/22
r1-r18: 100/1
r1-r93: 100/1
r1-r17: 100/1
r1-r94: 100/1
r1-r95: 24/1
r1-r96: 100/1
r1-r98: 100/1
r1-r100: 24/1
r1-r25: 24/11
r1-r19: 100/1
r1-r23: 100/11
r1-r101: 100/1
r1-r102: 100/1
r1-r103: 100/1
r1-r5: 24/1
r1-r104: 100/1
r1-r20: 100/1
r1-r105: 100/1
r1-r106: 100/1
r1-r21: 100/1
r107-r108: 24/1
r107-r109: 100/1
r107-r78: 24/1
r107-r79: 24/1
r91-r18: 100/1
r91-r21: 100/1
r110-r23: 100/1
r110-r24: 100/1
r110-r26: 24/13
r110-r25: 24/1
r110-r27: 24/1
r18-r1: 100/1
r18-r90: 100/1
r18-r91: 100/1
r18-r92: 100/1
r18-r93: 100/1
r18-r94: 100/1
r18-r17: 100/1
r18-r26: 24/21
r18-r27: 100/11
r18-r95: 100/1
r18-r111: 100/2
r18-r112: 100/1
r18-r100: 100/1
r18-r101: 100/1
r18-r103: 100/1
r18-r102: 100/1
r18-r5: 24/1
r18-r6: 100/4
r18-r104: 100/1
r18-r105: 100/1
r18-r20: 100/1
r18-r106: 100/1
r18-r21: 100/1
r113-r23: 100/1
r113-r24: 100/1
r113-r26: 24/13
r113-r25: 24/1
r113-r114: 24/1
r113-r27: 24/1
r113-r115: 24/11
r33-r116: 100/1
r33-r117: 100/1
r33-r118: 24/1
r33-r119: 100/1
r33-r120: 100/1
r33-r28: 100/1
r33-r121: 100/1
r33-r122: 100/1
r123-r124: 24/1
r123-r125: 24/1
r123-r126: 100/1
r123-r127: 100/1
r123-r11: 100/1
r123-r128: 100/1
r129-r124: 24/1
r129-r125: 24/1
r129-r126: 100/1
r129-r127: 100/1
r129-r11: 100/1
r129-r128: 100/1
r112-r18: 100/1
r118-r31: 24/1
r118-r4: 100/2
r118-r32: 100/2
r118-r33: 24/1
r118-r34: 24/2
r38-r130: 100/7
r38-r131: 100/1
r38-r132: 100/1
r38-r39: 100/1
r38-r128: 100/3
r38-r37: 100/1
r38-r133: 100/1
r38-r134: 100/1
r38-r135: 100/1
r38-r136: 100/1
r38-r126: 24/3
r137-r138: 100/5
r137-r139: 24/1
r137-r69: 100/1
r137-r140: 24/1
r137-r141: 24/1
r137-r142: 24/1
r137-r143: 24/1
r137-r144: 24/1
r137-r145: 100/5
r137-r146: 24/1
r137-r57: 100/1
r137-r147: 100/6
r137-r148: 100/1
r137-r149: 24/1
r137-r150: 24/1
r137-r151: 24/1
r131-r38: 100/1
r131-r39: 100/1
r69-r32: 100/6
r69-r144: 100/1
r69-r152: 100/8
r69-r11: 100/6
r69-r150: 100/1
r69-r149: 100/1
r69-r137: 100/1
r69-r151: 100/1
r69-r67: 100/1
r69-r23: 100/7
r69-r139: 100/1
r69-r68: 100/1
r69-r140: 100/1
r69-r141: 100/1
r69-r142: 100/1
r69-r143: 100/1
r69-r146: 100/1
r69-r153: 100/5
r69-r57: 100/1
r3-r0: 100/7
r3-r59: 100/1
r3-r60: 100/9
r3-r154: 100/1
r3-r155: 100/2
r3-r35: 100/1
r3-r156: 100/64
r3-r72: 100/9
r3-r61: 100/1
r3-r157: 100/2
r3-r58: 100/1
r3-r62: 100/40
r127-r60: 100/9
r127-r158: 100/1
r127-r159: 100/1
r127-r160: 100/1
r127-r128: 100/1
r127-r123: 100/1
r127-r161: 100/1
r127-r162: 100/1
r127-r129: 100/1
r127-r125: 100/1
r127-r163: 100/1
r127-r164: 100/1
r127-r89: 100/1
r127-r25: 100/8
r127-r165: 100/1
r127-r11: 100/1
r127-r166: 100/1
r127-r167: 100/1
r127-r14: 100/7
r127-r124: 100/1
r127-r168: 100/8
r127-r72: 24/9
r127-r169: 100/1
r127-r57: 100/6
r127-r170: 100/1
r127-r171: 100/1
r127-r172: 100/1
r127-r173: 100/1
r127-r174: 100/1
r175-r138: 100/1
r175-r145: 24/1
r176-r14: 24/1
r176-r152: 100/1
r176-r177: 24/1
r176-r178: 24/1
r176-r179: 24/1
r83-r82: 24/1
r83-r54: 100/2
r180-r181: 100/1
r20-r1: 100/1
r20-r90: 24/1
r20-r92: 24/1
r20-r18: 100/1
r20-r93: 24/1
r20-r94: 24/1
r20-r17: 24/1
r20-r95: 24/1
r20-r100: 24/1
r20-r19: 24/1
r20-r101: 24/1
r20-r102: 24/1
r20-r103: 24/1
r20-r104: 24/1
r20-r105: 24/1
r20-r106: 24/1
r20-r21: 24/1
r182-r4: 100/1
r182-r34: 24/1
r60-r183: 100/1
r60-r184: 100/2
r60-r185: 100/1
r60-r186: 100/1
r60-r3: 100/9
r60-r127: 100/9
r60-r187: 100/1
r60-r188: 100/1
r60-r189: 100/1
r60-r72: 24/1
r60-r25: 24/7
r60-r58: 100/9
r60-r190: 100/1
r191-r23: 100/1
r191-r24: 100/1
r191-r25: 24/1
r191-r26: 24/13
r191-r27: 24/1
r192-r23: 100/1
r192-r24: 100/1
r192-r25: 100/1
r192-r26: 24/13
r192-r27: 24/1
r30-r116: 100/1
r30-r119: 100/1
r30-r120: 100/1
r30-r28: 100/1
r30-r122: 24/1
r30-r121: 100/1
r42-r41: 24/3
r42-r45: 24/3
r42-r193: 100/1
r42-r40: 100/3
r159-r139: 24/6
r159-r127: 100/1
r159-r194: 24/1
r195-r196: 100/1
r195-r84: 24/1
r195-r85: 100/1
r195-r54: 100/1
r27-r197: 100/12
r27-r24: 100/1
r27-r192: 24/1
r27-r191: 24/1
r27-r110: 24/1
r27-r198: 24/1
r27-r18: 100/11
r27-r113: 24/1
r27-r22: 24/1
r27-r78: 100/5
r27-r36: 24/1
r27-r199: 24/1
r27-r200: 100/9
r27-r99: 24/1
r27-r201: 100/1
r27-r202: 100/8
r27-r25: 100/1
r27-r203: 24/1
r27-r204: 24/1
r27-r205: 24/1
r27-r124: 100/8
r27-r23: 100/1
r27-r206: 24/1
r27-r207: 24/1
r27-r208: 24/1
r27-r209: 24/1
r27-r210: 24/1
r27-r211: 24/1
r27-r212: 24/1
r27-r88: 24/1
r27-r213: 24/1
r27-r214: 24/1
r194-r11: 100/1
r194-r159: 24/1
r78-r108: 24/1
r78-r130: 24/10
r78-r23: 24/5
r78-r81: 24/1
r78-r215: 24/1
r78-r107: 24/1
r78-r216: 24/1
r78-r26: 24/10
r78-r27: 100/5
r78-r217: 24/1
r78-r218: 24/1
r78-r77: 24/2
r78-r109: 100/1
r78-r219: 24/1
r160-r127: 100/1
r160-r11: 100/1
r79-r108: 100/1
r79-r130: 24/10
r79-r23: 100/5
r79-r81: 100/1
r79-r215: 24/1
r79-r107: 24/1
r79-r216: 24/1
r79-r217: 24/1
r79-r77: 100/2
r79-r218: 100/1
r79-r109: 100/1
r79-r219: 100/1
r128-r178: 24/7
r128-r155: 100/15
r128-r158: 100/1
r128-r220: 100/1
r128-r152: 100/7
r128-r123: 100/1
r128-r162: 100/1
r128-r109: 100/5
r128-r129: 100/1
r128-r125: 100/1
r128-r38: 100/3
r128-r164: 100/1
r128-r126: 100/1
r128-r89: 100/1
r128-r25: 100/8
r128-r165: 100/1
r128-r11: 100/1
r128-r166: 100/1
r128-r167: 100/1
r128-r124: 100/1
r128-r23: 100/8
r128-r127: 100/1
r128-r72: 100/9
r128-r169: 100/1
r128-r170: 100/1
r128-r171: 100/1
r128-r172: 100/1
r128-r173: 100/1
r128-r174: 100/1
r221-r24: 100/1
r221-r25: 100/1
r98-r5: 24/1
r98-r1: 100/1
r98-r21: 100/1
r163-r127: 100/1
r163-r11: 100/1
r99-r23: 100/1
r99-r24: 100/1
r99-r26: 24/13
r99-r25: 100/1
r99-r27: 24/1
r99-r21: 24/11
r9-r0: 100/1
r9-r8: 24/1
r126-r158: 100/1
r126-r128: 100/1
r126-r123: 100/1
r126-r162: 100/1
r126-r129: 100/1
r126-r125: 100/1
r126-r38: 24/3
r126-r84: 24/16
r126-r89: 24/1
r126-r164: 100/1
r126-r25: 100/8
r126-r11: 100/1
r126-r165: 100/1
r126-r166: 100/1
r126-r167: 100/1
r126-r124: 100/1
r126-r222: 100/8
r126-r85: 100/16
r126-r169: 100/1
r126-r172: 100/1
r126-r170: 100/1
r126-r171: 24/1
r126-r173: 100/1
r126-r174: 100/1
r11-r0: 100/16
r11-r223: 100/7
r11-r158: 100/1
r11-r194: 100/1
r11-r128: 100/1
r11-r160: 100/1
r11-r161: 100/1
r11-r123: 100/1
r11-r162: 100/1
r11-r109: 100/5
r11-r129: 100/1
r11-r125: 100/1
r11-r163: 100/1
r11-r164: 100/1
r11-r89: 24/1
r11-r126: 100/1
r11-r25: 100/8
r11-r165: 100/1
r11-r166: 100/1
r11-r167: 100/1
r11-r69: 100/6
r11-r127: 100/1
r11-r39: 100/3
r11-r72: 100/9
r11-r169: 100/1
r11-r171: 100/1
r11-r170: 100/1
r11-r172: 100/1
r11-r173: 100/1
r11-r174: 100/1
r39-r224: 24/7
r39-r131: 100/1
r39-r225: 100/7
r39-r226: 100/1
r39-r37: 100/1
r39-r134: 100/1
r39-r133: 100/1
r39-r135: 100/1
r39-r38: 100/1
r39-r136: 100/1
r39-r11: 100/3
r227-r32: 100/1
r227-r228: 24/1
r181-r180: 100/1
r181-r155: 100/1
r181-r157: 100/1
r181-r229: 100/1
r230-r197: 100/1
r231-r196: 100/1
r231-r54: 100/1
r74-r75: 100/1
r74-r130: 100/1
r74-r177: 100/2
r74-r24: 100/12
r74-r197: 100/1
r74-r178: 100/2
r74-r76: 100/1
r74-r232: 100/1
r74-r233: 100/1
r74-r234: 100/1
r74-r235: 100/1
r74-r73: 100/1
r74-r236: 100/1
r74-r54: 100/21
r74-r237: 100/1
r74-r87: 100/1
r74-r238: 100/1
r158-r124: 24/1
r158-r127: 100/1
r158-r126: 100/1
r158-r11: 100/1
r158-r128: 100/1
r239-r23: 100/1
r239-r25: 100/1
r240-r125: 100/1
r64-r241: 24/1
r64-r63: 100/3
r199-r23: 100/1
r199-r24: 100/1
r199-r25: 100/1
r199-r26: 24/13
r199-r27: 24/1
r220-r128: 100/1
r96-r1: 100/1
r96-r5: 24/1
r96-r21: 24/1
r161-r127: 100/1
r161-r11: 100/1
r242-r84: 24/1
r242-r54: 100/1
r242-r85: 100/1
r243-r84: 24/1
r243-r196: 100/1
r243-r54: 100/1
r243-r85: 100/1
r8-r0: 100/1
r8-r2: 100/1
r8-r85: 100/2
r8-r6: 100/1
r8-r244: 100/1
r8-r9: 24/1
r8-r84: 100/2
r8-r19: 100/4
r8-r58: 100/7
r109-r108: 100/1
r109-r81: 100/1
r109-r24: 100/5
r109-r215: 100/1
r109-r107: 100/1
r109-r216: 100/1
r109-r245: 100/1
r109-r217: 100/1
r109-r78: 100/1
r109-r79: 100/1
r109-r128: 100/5
r109-r246: 100/2
r109-r219: 100/1
r109-r157: 100/14
r109-r11: 100/5
r203-r23: 100/1
r203-r139: 24/7
r203-r24: 100/1
r203-r25: 100/1
r203-r89: 24/8
r203-r26: 24/13
r203-r216: 24/5
r203-r27: 24/1
r165-r124: 24/1
r165-r126: 100/1
r165-r127: 100/1
r165-r11: 100/1
r165-r128: 100/1
r139-r69: 100/1
r139-r57: 100/1
r139-r159: 24/6
r139-r203: 24/7
r139-r137: 24/1
r247-r248: 24/1
r247-r249: 24/16
r247-r62: 100/16
r132-r38: 100/1
r226-r39: 100/1
r4-r152: 100/3
r4-r116: 100/2
r4-r250: 100/1
r4-r0: 100/21
r4-r117: 100/2
r4-r118: 100/2
r4-r251: 100/1
r4-r252: 100/1
r4-r253: 100/1
r4-r57: 100/6
r4-r147: 100/1
r4-r178: 100/3
r4-r70: 100/1
r4-r119: 100/2
r4-r13: 100/3
r4-r254: 100/1
r4-r120: 100/2
r4-r86: 100/1
r4-r255: 100/1
r4-r28: 100/2
r4-r256: 100/1
r4-r257: 100/1
r4-r182: 100/1
r4-r32: 100/1
r4-r258: 100/1
r4-r115: 100/1
r4-r121: 100/2
r259-r14: 24/1
r259-r152: 100/1
r259-r177: 24/1
r259-r178: 24/1
r259-r179: 24/1
r237-r75: 24/1
r237-r74: 100/1
r237-r76: 100/1
r257-r4: 100/1
r257-r32: 100/1
r257-r76: 100/2
r257-r34: 100/1
r257-r228: 100/1
r43-r40: 100/4
r130-r74: 100/1
r130-r225: 24/1
r130-r197: 100/1
r130-r38: 100/7
r130-r78: 24/10
r130-r79: 24/10
r130-r76: 100/1
r260-r156: 100/1
r260-r261: 100/1
r95-r1: 24/1
r95-r5: 24/1
r95-r18: 100/1
r95-r19: 24/1
r95-r20: 24/1
r95-r21: 100/1
r111-r18: 100/2
r189-r72: 100/1
r189-r60: 100/1
r189-r262: 100/11
r97-r5: 24/11
r97-r23: 100/1
r97-r21: 100/11
r125-r124: 100/1
r125-r127: 100/1
r125-r240: 100/1
r125-r263: 100/8
r125-r128: 100/1
r125-r123: 24/1
r125-r129: 24/1
r125-r169: 24/1
r125-r126: 100/1
r125-r172: 24/1
r125-r11: 100/1
r125-r174: 24/1
r201-r24: 100/1
r201-r25: 100/1
r201-r26: 24/13
r201-r27: 100/1
r264-r84: 24/1
r264-r54: 100/1
r264-r85: 100/1
r202-r27: 100/8
r89-r124: 24/1
r89-r127: 100/1
r89-r25: 24/8
r89-r126: 24/1
r89-r11: 24/1
r89-r203: 24/8
r89-r128: 100/1
r89-r88: 24/8
r166-r124: 24/1
r166-r126: 100/1
r166-r127: 100/1
r166-r11: 100/1
r166-r128: 100/1
r167-r124: 24/1
r167-r127: 100/1
r167-r126: 100/1
r167-r11: 100/1
r167-r128: 100/1
r265-r84: 24/1
r265-r196: 100/1
r265-r85: 100/1
r265-r54: 100/1
r49-r48: 100/1
r49-r266: 24/4
r140-r69: 100/1
r140-r57: 100/1
r140-r137: 24/1
r65-r267: 100/3
r65-r63: 100/1
r65-r266: 100/4
r268-r14: 100/1
r268-r269: 100/1
r34-r116: 100/2
r34-r250: 100/1
r34-r270: 100/2
r34-r177: 24/3
r34-r253: 100/1
r34-r255: 24/1
r34-r28: 100/2
r34-r269: 100/3
r34-r47: 100/4
r34-r118: 24/2
r34-r120: 100/2
r34-r254: 24/1
r34-r121: 100/2
r34-r251: 24/1
r34-r252: 24/1
r34-r117: 100/2
r34-r119: 100/2
r34-r70: 24/1
r34-r258: 24/1
r34-r147: 100/1
r34-r16: 100/3
r34-r182: 24/1
r34-r257: 100/1
r34-r256: 24/1
r34-r228: 100/1
r228-r250: 24/1
r228-r147: 100/1
r228-r227: 24/1
r228-r271: 100/2
r228-r32: 100/1
r228-r257: 100/1
r228-r34: 100/1
r75-r74: 100/1
r75-r225: 100/1
r75-r272: 100/1
r75-r76: 100/1
r75-r152: 100/2
r75-r108: 100/10
r75-r232: 100/1
r75-r196: 100/21
r75-r235: 100/1
r75-r234: 100/1
r75-r233: 100/1
r75-r73: 100/1
r75-r236: 100/1
r75-r237: 24/1
r75-r87: 100/1
r75-r238: 100/1
r224-r222: 100/3
r224-r39: 24/7
r224-r76: 100/1
r59-r3: 100/1
r59-r61: 24/1
r59-r58: 24/1
r225-r75: 100/1
r225-r130: 24/1
r225-r222: 100/3
r225-r197: 100/1
r225-r39: 100/7
r225-r76: 100/1
r273-r23: 100/1
r273-r25: 100/1
r100-r1: 24/1
r100-r18: 100/1
r100-r19: 24/1
r100-r20: 24/1
r100-r21: 100/1
r164-r124: 24/1
r164-r127: 100/1
r164-r126: 100/1
r164-r11: 100/1
r164-r128: 100/1
r19-r1: 100/1
r19-r90: 24/1
r19-r24: 100/11
r19-r92: 24/1
r19-r93: 24/1
r19-r94: 24/1
r19-r17: 24/1
r19-r95: 24/1
r19-r8: 100/4
r19-r100: 24/1
r19-r101: 24/1
r19-r103: 24/1
r19-r102: 24/1
r19-r274: 100/1
r19-r5: 24/1
r19-r104: 100/1
r19-r105: 24/1
r19-r20: 24/1
r19-r21: 100/1
r19-r106: 24/1
r204-r23: 100/1
r204-r24: 100/1
r204-r25: 24/1
r204-r26: 24/13
r204-r27: 24/1
r205-r23: 100/1
r205-r24: 100/1
r205-r25: 24/1
r205-r26: 24/13
r205-r27: 24/1
r275-r276: 24/1
r275-r223: 100/1
r275-r178: 100/1
r277-r14: 100/1
r277-r152: 100/1
r277-r177: 24/1
r277-r178: 24/1
r142-r69: 100/1
r142-r57: 100/1
r142-r137: 24/1
r276-r178: 100/1
r276-r223: 100/1
r276-r275: 24/1
r134-r38: 100/1
r134-r39: 100/1
r135-r38: 100/1
r135-r39: 100/1
r57-r138: 100/5
r57-r24: 100/7
r57-r144: 100/1
r57-r56: 100/4
r57-r137: 100/1
r57-r149: 100/1
r57-r150: 100/1
r57-r151: 100/1
r57-r14: 100/8
r57-r139: 100/1
r57-r69: 100/1
r57-r68: 100/1
r57-r140: 100/1
r57-r127: 100/6
r57-r141: 100/1
r57-r4: 100/6
r57-r142: 100/1
r57-r143: 100/1
r57-r146: 100/1
r57-r145: 100/5
r147-r250: 100/1
r147-r278: 24/3
r147-r279: 100/2
r147-r4: 100/1
r147-r32: 100/1
r147-r137: 100/6
r147-r228: 100/1
r147-r34: 100/1
r280-r50: 100/1
r280-r281: 100/4
r256-r4: 100/1
r256-r32: 100/1
r256-r34: 24/1
r250-r147: 100/1
r250-r271: 100/2
r250-r4: 100/1
r250-r115: 24/1
r250-r34: 100/1
r250-r228: 24/1
r278-r14: 100/1
r278-r152: 100/1
r278-r177: 24/1
r278-r178: 24/1
r278-r147: 24/3
r197-r74: 100/1
r197-r130: 100/1
r197-r225: 100/1
r197-r26: 24/2
r197-r230: 100/1
r197-r27: 100/12
r197-r32: 100/2
r197-r76: 100/1
r253-r282: 100/2
r253-r32: 100/1
r253-r4: 100/1
r253-r34: 100/1
r245-r108: 100/1
r245-r109: 100/1
r283-r84: 24/1
r283-r196: 100/1
r283-r54: 100/1
r283-r85: 100/1
r25-r284: 100/2
r25-r2: 24/13
r25-r60: 24/7
r25-r192: 100/1
r25-r191: 24/1
r25-r22: 24/1
r25-r27: 100/1
r25-r36: 100/1
r25-r128: 100/8
r25-r221: 100/1
r25-r201: 100/1
r25-r99: 100/1
r25-r126: 100/8
r25-r89: 24/8
r25-r11: 100/8
r25-r208: 100/1
r25-r211: 24/1
r25-r212: 100/1
r25-r88: 100/1
r25-r21: 100/11
r25-r1: 24/11
r25-r24: 100/1
r25-r110: 24/1
r25-r198: 24/1
r25-r26: 24/13
r25-r113: 24/1
r25-r239: 100/1
r25-r114: 100/1
r25-r199: 100/1
r25-r273: 100/1
r25-r203: 100/1
r25-r205: 24/1
r25-r204: 24/1
r25-r108: 100/5
r25-r23: 100/1
r25-r127: 100/8
r25-r101: 24/11
r25-r206: 24/1
r25-r207: 100/1
r25-r5: 24/11
r25-r209: 100/1
r25-r210: 24/1
r25-r170: 24/8
r25-r214: 100/1
r25-r213: 100/1
r193-r241: 100/2
r193-r42: 100/1
r285-r84: 24/1
r285-r196: 100/1
r285-r54: 100/1
r285-r85: 100/1
r153-r200: 100/1
r153-r138: 24/1
r153-r286: 100/1
r153-r69: 100/5
r153-r145: 24/1
r153-r287: 100/1
r238-r75: 100/1
r238-r74: 100/1
r238-r76: 100/1
r155-r3: 100/2
r155-r181: 100/1
r155-r288: 100/1
r155-r157: 100/1
r155-r128: 100/15
r29-r116: 100/1
r29-r117: 24/1
r29-r119: 100/1
r29-r120: 100/1
r29-r28: 100/1
r29-r122: 100/1
r29-r121: 100/1
r219-r108: 24/1
r219-r109: 100/1
r219-r215: 24/1
r219-r24: 24/5
r219-r78: 24/1
r219-r79: 100/1
r289-r84: 24/1
r289-r196: 100/1
r289-r54: 100/1
r289-r85: 100/1
r108-r75: 100/10
r108-r81: 100/1
r108-r215: 24/1
r108-r107: 24/1
r108-r216: 24/1
r108-r245: 100/1
r108-r217: 24/1
r108-r78: 24/1
r108-r290: 100/2
r108-r79: 100/1
r108-r218: 100/1
r108-r291: 100/2
r108-r109: 100/1
r108-r219: 24/1
r108-r25: 100/5
r292-r84: 24/1
r292-r196: 24/1
r292-r54: 100/1
r292-r85: 100/1
r23-r192: 100/1
r23-r191: 100/1
r23-r22: 100/1
r23-r27: 100/1
r23-r78: 24/5
r23-r36: 100/1
r23-r79: 100/5
r23-r128: 100/8
r23-r97: 100/1
r23-r99: 100/1
r23-r25: 100/1
r23-r208: 100/1
r23-r212: 100/1
r23-r211: 100/1
r23-r88: 100/1
r23-r1: 100/11
r23-r24: 100/1
r23-r110: 100/1
r23-r198: 100/1
r23-r26: 100/13
r23-r113: 100/1
r23-r239: 100/1
r23-r199: 100/1
r23-r273: 100/1
r23-r203: 100/1
r23-r205: 100/1
r23-r204: 100/1
r23-r69: 100/7
r23-r206: 100/1
r23-r5: 100/11
r23-r207: 24/1
r23-r209: 100/1
r23-r210: 100/1
r23-r214: 100/1
r23-r213: 100/1
r117-r29: 24/1
r117-r31: 24/1
r117-r4: 100/2
r117-r32: 100/2
r117-r33: 100/1
r117-r34: 100/2
r55-r51: 24/1
r55-r53: 100/1
r5-r1: 24/1
r5-r0: 100/4
r5-r92: 24/1
r5-r18: 24/1
r5-r93: 24/1
r5-r12: 24/1
r5-r17: 24/1
r5-r94: 24/1
r5-r95: 24/1
r5-r97: 24/11
r5-r96: 24/1
r5-r98: 24/1
r5-r51: 100/22
r5-r25: 24/11
r5-r19: 24/1
r5-r23: 100/11
r5-r101: 24/1
r5-r103: 24/1
r5-r102: 24/1
r5-r104: 24/1
r5-r105: 24/1
r5-r106: 24/1
r5-r21: 24/1
r15-r267: 100/1
r15-r293: 100/4
r15-r13: 100/33
r15-r63: 100/3
r210-r23: 100/1
r210-r24: 100/1
r210-r25: 24/1
r210-r26: 24/13
r210-r27: 24/1
r157-r109: 100/14
r157-r3: 100/2
r157-r155: 100/1
r157-r181: 100/1
r157-r288: 100/1
r138-r286: 100/1
r138-r200: 24/1
r138-r24: 100/9
r138-r153: 24/1
r138-r57: 100/5
r138-r175: 100/1
r138-r287: 100/1
r138-r137: 100/5
r294-r152: 100/1
r294-r295: 100/29
r294-r296: 100/1
r297-r14: 24/1
r297-r152: 100/1
r297-r177: 24/1
r297-r178: 24/1
r255-r4: 100/1
r255-r32: 100/1
r255-r34: 24/1
r84-r298: 24/1
r84-r195: 24/1
r84-r76: 24/21
r84-r243: 24/1
r84-r242: 24/1
r84-r8: 100/2
r84-r264: 24/1
r84-r283: 24/1
r84-r126: 24/16
r84-r289: 24/1
r84-r299: 24/1
r84-r300: 24/1
r84-r301: 24/1
r84-r265: 24/1
r84-r292: 24/1
r84-r285: 24/1
r84-r302: 24/1
r84-r82: 24/2
r84-r54: 24/1
r121-r29: 100/1
r121-r30: 100/1
r121-r31: 100/1
r121-r4: 100/2
r121-r32: 100/2
r121-r33: 100/1
r121-r34: 100/2
r266-r49: 24/4
r266-r281: 100/1
r266-r65: 100/4
r301-r84: 24/1
r301-r196: 100/1
r301-r54: 100/1
r301-r85: 100/1
r222-r224: 100/3
r222-r225: 100/3
r222-r168: 100/1
r222-r303: 100/2
r222-r263: 24/1
r222-r304: 100/1
r222-r305: 100/2
r222-r126: 100/8
r183-r72: 100/1
r183-r60: 100/1
r282-r253: 100/2
r119-r29: 100/1
r119-r30: 100/1
r119-r31: 100/1
r119-r32: 100/2
r119-r4: 100/2
r119-r34: 100/2
r119-r33: 100/1
r279-r147: 100/2
r168-r222: 100/1
r168-r127: 100/8
r168-r306: 100/2
r168-r263: 100/1
r168-r76: 100/3
r168-r304: 100/1
r271-r250: 100/2
r271-r228: 100/2
r263-r125: 100/8
r263-r222: 24/1
r263-r168: 100/1
r188-r72: 100/1
r188-r60: 100/1
r145-r286: 24/1
r145-r200: 24/1
r145-r24: 100/9
r145-r153: 24/1
r145-r57: 100/5
r145-r175: 24/1
r145-r137: 100/5
r145-r287: 24/1
r293-r307: 24/1
r293-r15: 100/4
r169-r124: 24/1
r169-r125: 24/1
r169-r126: 100/1
r169-r127: 100/1
r169-r11: 100/1
r169-r128: 100/1
r44-r152: 100/1
r44-r45: 24/29
r44-r40: 24/29
r46-r45: 24/29
r46-r152: 100/1
r46-r296: 24/1
r270-r308: 100/1
r270-r34: 100/2
r308-r270: 100/1
r308-r32: 100/2
r26-r197: 24/2
r26-r24: 100/13
r26-r192: 24/13
r26-r191: 24/13
r26-r110: 24/13
r26-r18: 24/21
r26-r198: 24/13
r26-r113: 24/13
r26-r22: 24/13
r26-r78: 24/10
r26-r36: 24/13
r26-r199: 24/13
r26-r200: 24/9
r26-r99: 24/13
r26-r201: 24/13
r26-r25: 24/13
r26-r203: 24/13
r26-r204: 24/13
r26-r205: 24/13
r26-r124: 24/7
r26-r23: 100/13
r26-r206: 24/13
r26-r207: 24/13
r26-r208: 24/13
r26-r209: 24/13
r26-r210: 24/13
r26-r211: 24/13
r26-r212: 24/13
r26-r88: 24/13
r26-r213: 24/13
r26-r214: 24/13
r179-r14: 100/1
r179-r152: 100/1
r179-r259: 24/1
r179-r177: 24/1
r179-r178: 24/1
r179-r176: 24/1
r306-r168: 100/2
r306-r303: 24/1
r32-r116: 100/2
r32-r308: 100/2
r32-r253: 100/1
r32-r197: 100/2
r32-r255: 100/1
r32-r28: 100/2
r32-r118: 100/2
r32-r254: 100/1
r32-r120: 100/2
r32-r122: 100/2
r32-r121: 100/2
r32-r69: 100/6
r32-r117: 100/2
r32-r252: 100/1
r32-r251: 100/1
r32-r119: 100/2
r32-r70: 100/1
r32-r4: 100/1
r32-r258: 100/1
r32-r6: 100/21
r32-r147: 100/1
r32-r227: 100/1
r32-r256: 100/1
r32-r257: 100/1
r32-r228: 100/1
r76-r224: 100/1
r76-r74: 100/1
r76-r75: 100/1
r76-r130: 100/1
r76-r225: 100/1
r76-r197: 100/1
r76-r223: 100/2
r76-r84: 24/21
r76-r232: 100/1
r76-r168: 100/3
r76-r233: 100/1
r76-r234: 100/1
r76-r85: 100/21
r76-r73: 100/1
r76-r236: 100/1
r76-r237: 100/1
r76-r87: 100/1
r76-r257: 100/2
r76-r238: 100/1
r120-r29: 100/1
r120-r30: 100/1
r120-r31: 100/1
r120-r32: 100/2
r120-r4: 100/2
r120-r34: 100/2
r120-r33: 100/1
r122-r29: 100/1
r122-r30: 24/1
r122-r31: 24/1
r122-r32: 100/2
r122-r33: 100/1
r299-r84: 24/1
r299-r196: 100/1
r299-r54: 100/1
r299-r85: 100/1
r68-r69: 100/1
r68-r67: 24/1
r68-r57: 100/1
r68-r88: 24/7
r101-r5: 24/1
r101-r1: 100/1
r101-r18: 100/1
r101-r25: 24/11
r101-r19: 24/1
r101-r20: 24/1
r101-r21: 100/1
r249-r247: 24/16
r249-r196: 100/44
r249-r62: 100/1
r206-r23: 100/1
r206-r24: 100/1
r206-r25: 24/1
r206-r26: 24/13
r206-r27: 24/1
r218-r108: 100/1
r218-r78: 24/1
r218-r79: 100/1
r244-r8: 100/1
r106-r1: 100/1
r106-r5: 24/1
r106-r18: 100/1
r106-r19: 24/1
r106-r20: 24/1
r106-r21: 24/1
r248-r247: 24/1
r248-r54: 100/57
r177-r14: 100/1
r177-r74: 100/2
r177-r278: 24/1
r177-r297: 24/1
r177-r178: 24/1
r177-r179: 24/1
r177-r296: 100/1
r177-r176: 24/1
r177-r277: 24/1
r177-r152: 100/1
r177-r259: 24/1
r177-r34: 24/3
r50-r41: 100/3
r50-r48: 100/5
r50-r280: 100/1
r66-r63: 100/5
r148-r137: 100/1
r300-r196: 24/1
r300-r84: 24/1
r300-r85: 24/1
r300-r54: 100/1
r300-r103: 100/4
r62-r309: 100/1
r62-r247: 100/16
r62-r3: 100/40
r62-r310: 100/28
r62-r58: 100/40
r62-r249: 100/1
r190-r72: 100/1
r190-r60: 100/1
r309-r310: 24/28
r309-r196: 100/44
r309-r62: 100/1
r196-r75: 100/21
r196-r231: 100/1
r196-r298: 100/1
r196-r2: 100/2
r196-r53: 100/21
r196-r195: 100/1
r196-r243: 100/1
r196-r283: 100/1
r196-r289: 100/1
r196-r300: 24/1
r196-r299: 100/1
r196-r301: 100/1
r196-r309: 100/44
r196-r265: 100/1
r196-r292: 24/1
r196-r285: 100/1
r196-r302: 100/1
r196-r249: 100/44
r196-r261: 100/62
r196-r54: 100/1
r85-r298: 100/1
r85-r53: 100/21
r85-r195: 100/1
r85-r76: 100/21
r85-r243: 100/1
r85-r242: 100/1
r85-r8: 100/2
r85-r264: 100/1
r85-r283: 100/1
r85-r126: 100/16
r85-r289: 100/1
r85-r299: 100/1
r85-r300: 24/1
r85-r301: 100/1
r85-r265: 100/1
r85-r285: 100/1
r85-r292: 100/1
r85-r302: 100/1
r85-r82: 100/2
r85-r54: 100/1
r103-r5: 24/1
r103-r1: 100/1
r103-r18: 100/1
r103-r19: 24/1
r103-r300: 100/4
r103-r20: 24/1
r103-r21: 100/1
r212-r23: 100/1
r212-r24: 100/1
r212-r25: 100/1
r212-r26: 24/13
r212-r27: 24/1
r178-r14: 100/1
r178-r74: 100/2
r178-r177: 24/1
r178-r278: 24/1
r178-r297: 24/1
r178-r223: 100/1
r178-r179: 24/1
r178-r4: 100/3
r178-r275: 100/1
r178-r277: 24/1
r178-r176: 24/1
r178-r128: 24/7
r178-r276: 100/1
r178-r305: 100/1
r178-r259: 24/1
r152-r46: 100/1
r152-r75: 100/2
r152-r311: 100/1
r152-r294: 100/1
r152-r312: 100/1
r152-r297: 100/1
r152-r278: 100/1
r152-r177: 100/1
r152-r179: 100/1
r152-r296: 100/1
r152-r128: 100/7
r152-r305: 100/1
r152-r14: 100/1
r152-r69: 100/8
r152-r4: 100/3
r152-r277: 100/1
r152-r176: 100/1
r152-r259: 100/1
r152-r16: 100/2
r152-r44: 100/1
r254-r4: 100/1
r254-r32: 100/1
r254-r34: 24/1
r313-r2: 100/2
r302-r84: 24/1
r302-r196: 100/1
r302-r54: 100/1
r302-r85: 100/1
r187-r72: 100/1
r187-r60: 100/1
r102-r1: 100/1
r102-r5: 24/1
r102-r18: 100/1
r102-r19: 24/1
r102-r20: 24/1
r102-r21: 100/1
r207-r23: 24/1
r207-r24: 100/1
r207-r25: 100/1
r207-r26: 24/13
r207-r27: 24/1
r16-r152: 100/2
r16-r45: 100/30
r16-r13: 100/1
r16-r34: 100/3
r16-r40: 100/30
r31-r116: 100/1
r31-r117: 24/1
r31-r118: 24/1
r31-r119: 100/1
r31-r120: 100/1
r31-r28: 100/1
r31-r121: 100/1
r31-r122: 24/1
r170-r124: 24/1
r170-r127: 100/1
r170-r25: 24/8
r170-r126: 100/1
r170-r11: 100/1
r170-r128: 100/1
r287-r200: 24/1
r287-r138: 100/1
r287-r146: 100/5
r287-r145: 24/1
r287-r153: 100/1
r281-r280: 100/4
r281-r266: 100/1
r105-r1: 100/1
r105-r5: 24/1
r105-r18: 100/1
r105-r19: 24/1
r105-r20: 24/1
r105-r21: 24/1
r307-r267: 100/4
r307-r293: 24/1
r267-r307: 100/4
r267-r41: 100/6
r267-r15: 100/1
r267-r65: 100/3
r41-r267: 100/6
r41-r295: 100/1
r41-r50: 100/3
r41-r42: 24/3
r41-r40: 100/1
r41-r314: 100/4
r284-r24: 100/2
r284-r25: 100/2
r295-r41: 100/1
r295-r294: 100/29
r223-r276: 100/1
r223-r305: 100/1
r223-r269: 100/1
r223-r14: 100/1
r223-r178: 100/1
r223-r11: 100/7
r223-r296: 100/1
r223-r76: 100/2
r223-r275: 100/1
r53-r1: 100/22
r53-r52: 100/1
r53-r51: 24/1
r53-r196: 100/21
r53-r54: 100/21
r53-r85: 100/21
r53-r21: 100/22
r53-r55: 100/1
r269-r305: 100/1
r269-r223: 100/1
r269-r296: 100/1
r269-r268: 100/1
r269-r34: 100/3
r200-r138: 24/1
r200-r286: 24/1
r200-r145: 24/1
r200-r153: 100/1
r200-r26: 24/9
r200-r27: 100/9
r200-r287: 24/1
r252-r4: 100/1
r252-r32: 100/1
r252-r34: 24/1
r232-r74: 100/1
r232-r75: 100/1
r232-r76: 100/1
r235-r75: 100/1
r235-r74: 100/1
r258-r4: 100/1
r258-r32: 100/1
r258-r34: 24/1
r236-r75: 100/1
r236-r74: 100/1
r236-r76: 100/1
r208-r23: 100/1
r208-r24: 100/1
r208-r26: 24/13
r208-r25: 100/1
r208-r27: 24/1
r298-r84: 24/1
r298-r196: 100/1
r298-r54: 100/1
r298-r85: 100/1
r90-r1: 100/1
r90-r18: 100/1
r90-r19: 24/1
r90-r20: 24/1
r90-r21: 100/1
r93-r1: 100/1
r93-r5: 24/1
r93-r18: 100/1
r93-r19: 24/1
r93-r20: 24/1
r93-r21: 100/1
r216-r108: 24/1
r216-r109: 100/1
r216-r203: 24/5
r216-r78: 24/1
r216-r79: 24/1
r296-r152: 100/1
r296-r269: 100/1
r296-r305: 24/1
r296-r46: 24/1
r296-r311: 24/1
r296-r294: 100/1
r296-r312: 24/1
r296-r177: 100/1
r296-r223: 100/1
r262-r189: 100/11
r305-r152: 100/1
r305-r269: 100/1
r305-r222: 100/2
r305-r178: 100/1
r305-r223: 100/1
r305-r296: 24/1
r61-r59: 24/1
r61-r3: 100/1
r61-r58: 24/1
r288-r155: 100/1
r288-r157: 100/1
r149-r69: 100/1
r149-r57: 100/1
r149-r137: 24/1
r234-r74: 100/1
r234-r75: 100/1
r234-r76: 100/1
r72-r183: 100/1
r72-r185: 100/1
r72-r186: 100/1
r72-r60: 24/1
r72-r3: 100/9
r72-r71: 100/2
r72-r127: 24/9
r72-r187: 100/1
r72-r188: 100/1
r72-r128: 100/9
r72-r189: 100/1
r72-r11: 100/9
r72-r190: 100/1
r274-r19: 100/1
r6-r0: 100/1
r6-r8: 100/1
r6-r18: 100/4
r6-r54: 100/2
r6-r10: 100/1
r6-r32: 100/21
r6-r21: 24/4
r209-r23: 100/1
r209-r24: 100/1
r209-r25: 100/1
r209-r26: 24/13
r209-r27: 24/1
r54-r74: 100/21
r54-r231: 100/1
r54-r298: 100/1
r54-r248: 100/57
r54-r53: 100/21
r54-r195: 100/1
r54-r242: 100/1
r54-r243: 100/1
r54-r264: 100/1
r54-r51: 100/21
r54-r283: 100/1
r54-r84: 24/1
r54-r289: 100/1
r54-r300: 100/1
r54-r299: 100/1
r54-r301: 100/1
r54-r265: 100/1
r54-r285: 100/1
r54-r292: 100/1
r54-r196: 100/1
r54-r302: 100/1
r54-r85: 100/1
r54-r261: 100/62
r54-r83: 100/2
r54-r6: 100/2
r54-r10: 100/2
r171-r124: 24/1
r171-r126: 24/1
r171-r127: 100/1
r171-r11: 100/1
r171-r128: 100/1
r173-r124: 24/1
r173-r127: 100/1
r173-r126: 100/1
r173-r11: 100/1
r173-r128: 100/1
r214-r23: 100/1
r214-r24: 100/1
r214-r25: 100/1
r214-r26: 24/13
r214-r27: 24/1
r311-r152: 100/1
r311-r296: 24/1
r2-r0: 100/1
r2-r8: 100/1
r2-r25: 24/13
r2-r196: 100/2
r2-r313: 100/2
r2-r10: 100/1
r2-r21: 100/4
r312-r152: 100/1
r312-r296: 24/1
r185-r72: 100/1
r185-r60: 100/1
r154-r133: 24/16
r154-r3: 100/1
r310-r309: 24/28
r310-r62: 100/28
r217-r108: 24/1
r217-r109: 100/1
r217-r78: 24/1
r217-r79: 24/1
r162-r124: 24/1
r162-r126: 100/1
r162-r127: 100/1
r162-r11: 100/1
r162-r128: 100/1
r144-r69: 100/1
r144-r57: 100/1
r144-r137: 24/1
r133-r38: 100/1
r133-r154: 24/16
r133-r39: 100/1
r115-r250: 24/1
r115-r113: 24/11
r115-r4: 100/1
r286-r200: 24/1
r286-r138: 100/1
r286-r145: 24/1
r286-r153: 100/1
r186-r72: 100/1
r186-r60: 100/1
r251-r4: 100/1
r251-r32: 100/1
r251-r34: 24/1
r156-r3: 100/64
r156-r260: 100/1
r261-r260: 100/1
r261-r196: 100/62
r261-r54: 100/62
r143-r69: 100/1
r143-r57: 100/1
r143-r137: 24/1
r241-r64: 24/1
r241-r193: 100/2
r211-r23: 100/1
r211-r24: 100/1
r211-r25: 24/1
r211-r26: 24/13
r211-r27: 24/1
r172-r124: 24/1
r172-r125: 24/1
r172-r126: 100/1
r172-r127: 100/1
r172-r11: 100/1
r172-r128: 100/1
r116-r29: 100/1
r116-r30: 100/1
r116-r31: 100/1
r116-r32: 100/2
r116-r4: 100/2
r116-r34: 100/2
r116-r33: 100/1
r272-r75: 100/1
r81-r108: 100/1
r81-r109: 100/1
r81-r80: 100/6
r81-r78: 24/1
r81-r79: 100/1
r92-r1: 100/1
r92-r5: 24/1
r92-r18: 100/1
r92-r19: 24/1
r92-r20: 24/1
r92-r21: 100/1
r24-r284: 100/2
r24-r138: 100/9
r24-r192: 100/1
r24-r191: 100/1
r24-r22: 100/1
r24-r27: 100/1
r24-r36: 100/1
r24-r221: 100/1
r24-r201: 100/1
r24-r99: 100/1
r24-r25: 100/1
r24-r145: 100/9
r24-r208: 100/1
r24-r211: 100/1
r24-r212: 100/1
r24-r88: 100/1
r24-r74: 100/12
r24-r110: 100/1
r24-r198: 100/1
r24-r26: 100/13
r24-r113: 100/1
r24-r114: 100/1
r24-r199: 100/1
r24-r109: 100/5
r24-r219: 24/5
r24-r19: 100/11
r24-r203: 100/1
r24-r205: 100/1
r24-r204: 100/1
r24-r23: 100/1
r24-r206: 100/1
r24-r207: 100/1
r24-r209: 100/1
r24-r210: 100/1
r24-r57: 100/7
r24-r214: 100/1
r24-r213: 100/1
r215-r108: 24/1
r215-r109: 100/1
r215-r219: 24/1
r215-r78: 24/1
r215-r79: 24/1
r198-r23: 100/1
r198-r24: 100/1
r198-r25: 24/1
r198-r26: 24/13
r198-r27: 24/1
r94-r1: 100/1
r94-r5: 24/1
r94-r18: 100/1
r94-r19: 24/1
r94-r20: 24/1
r94-r21: 24/1
r114-r24: 100/1
r114-r25: 100/1
r114-r113: 24/1
r304-r222: 100/1
r304-r168: 100/1
r52-r51: 100/1
r52-r53: 100/1
r136-r38: 100/1
r136-r39: 100/1
r150-r69: 100/1
r150-r57: 100/1
r150-r137: 24/1
r151-r69: 100/1
r151-r57: 100/1
r151-r137: 24/1
r229-r181: 100/1
r14-r177: 100/1
r14-r278: 100/1
r14-r297: 24/1
r14-r13: 100/2
r14-r178: 100/1
r14-r223: 100/1
r14-r127: 100/7
r14-r179: 100/1
r14-r277: 100/1
r14-r268: 100/1
r14-r176: 24/1
r14-r152: 100/1
r14-r259: 24/1
r14-r57: 100/8
r124-r26: 24/7
r124-r158: 24/1
r124-r27: 100/8
r124-r128: 100/1
r124-r162: 24/1
r124-r123: 24/1
r124-r125: 100/1
r124-r129: 24/1
r124-r164: 24/1
r124-r89: 24/1
r124-r126: 100/1
r124-r165: 24/1
r124-r166: 24/1
r124-r167: 24/1
r124-r127: 100/1
r124-r169: 24/1
r124-r172: 24/1
r124-r171: 24/1
r124-r170: 24/1
r124-r173: 24/1
r124-r174: 24/1
r184-r60: 100/2
r233-r74: 100/1
r233-r75: 100/1
r233-r76: 100/1
r303-r222: 100/2
r303-r306: 24/1
r141-r69: 100/1
r141-r57: 100/1
r141-r137: 24/1
r314-r41: 100/4
r290-r108: 100/2
r246-r109: 100/2
r7-r0: 100/1
r7-r10: 100/1
r146-r69: 100/1
r146-r57: 100/1
r146-r137: 24/1
r146-r287: 100/5
r291-r108: 100/2
r104-r5: 24/1
r104-r1: 100/1
r104-r18: 100/1
r104-r19: 100/1
r104-r20: 24/1
r104-r21: 100/1
r10-r0: 100/1
r10-r2: 100/1
r10-r6: 100/1
r10-r7: 100/1
r10-r54: 100/2
r213-r23: 100/1
r213-r24: 100/1
r213-r25: 100/1
r213-r26: 24/13
r213-r27: 24/1
r174-r124: 24/1
r174-r125: 24/1
r174-r126: 100/1
r174-r127: 100/1
r174-r11: 100/1
r174-r128: 100/1