Traffic:
25000-1/8
150000-2/8
5000-3/8
40000-4/8
160000-5/8
120000-6/8
300000-7/8
67800-8/8
3000-9/8
60080-10/8
Egress:
r2
r7
r13
r20
r28
r46
r55
r67
r85
Hosts prefixes:
10/8
9/8
8/8
7/8
6/8
5/8
4/8
3/8
2/8
1/8